Codigo,LogPow,MasaMolar(g-mol),S_aureus,E_coli,C_albicans
CRQ-087,2.06,295.2464,212.0,3387.0,3387
CRQ-135,3.98,326.3448,3064.0,3064.0,3064
CRQ-136,4.46,486.937,2450.0,2450.0,2450
CRQ-150,2.64,280.2748,1784.0,3568.0,3568
CRQ-151,3.17,284.6939,220.0,3512.0,220
CRQ-152,3.18,284.6939,878.0,3512.0,220
CRQ-153,3.19,284.6939,439.0,3512.0,439
CRQ-154,3.86,306.3551,3264.0,3264.0,3264
CRQ-155,2.64,280.2748,223.0,3568.0,446
CRQ-156,2.62,280.2748,3568.0,892.0,3568
CRQ-157,2.65,250.2488,250.0,250.0,4000
CRQ-158,2.01,295.2464,13.0,1693.0,85
CRQ-159,2.06,295.2464,21.2,3387.0,3387
CRQ-161,2.98,280.2748,237.0,3784.0,473
CRQ-162,2.98,280.2748,431.0,1722.0,1722
CRQ-164,3.26,329.1449,760.0,3038.0,190
CRQ-165,3.27,329.1449,3038.0,3038.0,3038
CRQ-166,6.49,492.5633,2030.0,2030.0,2030
CRQ-167,3.87,408.0409,2450.0,2450.0,2450
CRQ-168,3.69,319.1389,2828.0,2828.0,2828
CRQ-169,4.2,353.584,2828.0,2828.0,2828
CRQ-170,4.23,353.584,2828.0,2828.0,2828
CRQ-171,3.7,319.1389,3133.0,3133.0,3133
CRQ-172,3.83,312.747,3197.0,3197.0,3197
CRQ-173,3.95,306.3551,3262.0,3262.0,3262
CRQ-174,5.47,443.7065,0.34,0.56,2244
CRQ-175,3.53,320.3386,1561.0,3122.0,3122
