Codigo,LogPow,MasaMolar(g/mol),S_aureus,E_coli,C_albicans
CRQ-158,2.01,295.2464,13,1693,85
CRQ-087,2.06,295.2464,212,3387,3387
CRQ-159,2.06,295.2464,21.2,3387,3387
CRQ-156,2.62,280.2748,3568,892,3568
CRQ-150,2.64,280.2748,1784,3568,3568
CRQ-155,2.64,280.2748,223,3568,446
CRQ-157,2.65,250.2488,250,250,4000
CRQ-161,2.98,280.2748,237,3784,473
CRQ-162,2.98,280.2748,431,1722,1722
CRQ-151,3.17,284.6939,220,3512,220
CRQ-152,3.18,284.6939,878,3512,220
CRQ-153,3.19,284.6939,439,3512,439
CRQ-164,3.26,329.1449,760,3038,190
CRQ-165,3.27,329.1449,3038,3038,3038
CRQ-175,3.53,320.3386,1561,3122,3122
CRQ-168,3.69,319.1389,2828,2828,2828
CRQ-171,3.7,319.1389,3133,3133,3133
CRQ-172,3.83,312.747,3197,3197,3197
CRQ-154,3.86,306.3551,3264,3264,3264
CRQ-167,3.87,408.0409,2450,2450,2450
CRQ-173,3.95,306.3551,3262,3262,3262
CRQ-135,3.98,326.3448,3064,3064,3064
CRQ-169,4.2,353.584,2828,2828,2828
CRQ-170,4.23,353.584,2828,2828,2828
CRQ-136,4.46,486.937,2450,2450,2450
CRQ-174,5.47,443.7065,0.34,0.56,2244
CRQ-166,6.49,492.5633,2030,2030,2030
